…
데이터 전처리 과정에서 기사에 포함된 광고글과 신문사 이름, 머릿말 등을 제거하였습니다. 이후 기사제목을 기준으로 광고기사 및 연관성이 낮은 기사를 제거하였습니다. 그 결과 7356 건의 기사 중 전처리를 통해 4145 건의 기사를 추출하였고, 전처리 이후 내용분석을 통해 필터링 하여 총 4110 건의 데이터 셋을 구축할 수 있었습니다.

## 형태소 분석
KoNLP 패키지 내장함수 extractNoun과 tidytext 내장함수 unnest_tokens 를 활용해 형태소분석을 실시, 형태소 분석 이후 2차 전처리 과정을 수행하였습니다.
형태소 분석 결과 1,169,158 건의 데이터를 추출하였고, 이 중 숫자, 한 글자 단어, 열 글자 초과 단어를 제거하여 817,388 건의 명사를 필터링하였고, 빈도 2 이하 단어를 분석에서 제외한 후 불용어 처리 및 관련단어 통합 등을 진행하였습니다. 이후 "쿠팡"이라는 키워드를 분석에서 제외한 후 최종적으로 출현빈도 10 이하의 단어를 필터링 하였다. 결과적으로 659,773 건의 명사를 추출할 수 있었습니다.

## 분석결과

### 출현빈도, tf_idf, weighted log odds ratio (1기 기준)

```{R}
# A tibble: 17,856 x 7
   시기  words      n      tf   idf  tf_idf log_odds
   <chr> <chr>  <int>   <dbl> <dbl>   <dbl>    <dbl>
 1 2기   확진자  2931 0.0112  0.405 0.00455   32.3  
 2 3기   기업    2444 0.00810 0     0          0.191
 3 3기   투자    2188 0.00725 0     0          3.63 
 4 3기   배달    2183 0.00724 0     0          8.99 
 5 3기   서비스  2080 0.00689 0     0         -1.63 
 6 2기   감염    2072 0.00793 0     0         11.8  
 7 2기   기업    1945 0.00745 0     0         -1.41 
 8 3기   배송    1831 0.00607 0     0         -4.04 
 9 2기   배송    1799 0.00689 0     0         -1.11 
10 3기   온라인  1717 0.00569 0     0         -2.27 
# … with 17,846 more rows
```
…
